{
    "KPlugin": {
        "Authors": [
            {
                "Email": "mart@kde.org",
                "Name": "Marco Martin",
                "Name[ca]": "Marco Martin",
                "Name[cs]": "Marco Martin",
                "Name[en_GB]": "Marco Martin",
                "Name[es]": "Marco Martin",
                "Name[et]": "Marco Martin",
                "Name[fr]": "Marco Martin",
                "Name[it]": "Marco Martin",
                "Name[nl]": "Marco Martin",
                "Name[nn]": "Marco Martin",
                "Name[pt]": "Marco Martin",
                "Name[pt_BR]": "Marco Martin",
                "Name[sk]": "Marco Martin",
                "Name[sv]": "Marco Martin",
                "Name[uk]": "Marco Martin",
                "Name[x-test]": "xxMarco Martinxx"
            },
            {
                "Email": "aseigo@kde.org",
                "Name": "Aaron Seigo",
                "Name[ca]": "Aaron Seigo",
                "Name[cs]": "Aaron Seigo",
                "Name[en_GB]": "Aaron Seigo",
                "Name[es]": "Aaron Seigo",
                "Name[et]": "Aaron Seigo",
                "Name[fr]": "Aaron Seigo",
                "Name[it]": "Aaron Seigo",
                "Name[nl]": "Aaron Seigo",
                "Name[nn]": "Aaron Seigo",
                "Name[pt]": "Aaron Seigo",
                "Name[pt_BR]": "Aaron Seigo",
                "Name[sk]": "Aaron Seigo",
                "Name[sv]": "Aaron Seigo",
                "Name[uk]": "Aaron Seigo",
                "Name[x-test]": "xxAaron Seigoxx"
            }
        ],
        "Id": "KSysguard/SensorFace",
        "Name": "Face for the KSysguard Sensor Face",
        "Name[ca]": "Cara per al sensor de cares del KSysguard",
        "Name[en_GB]": "Face for the KSysguard Sensor Face",
        "Name[es]": "Carátula para el sensor de KSysguard",
        "Name[et]": "KSysguardi sensorite välimus",
        "Name[fr]": "Visage pour le senseur de visage de KSysguard",
        "Name[it]": "Aspetto dei sensori di KSysguard",
        "Name[nl]": "Gezicht voor het KSysguard Sensor gezicht",
        "Name[nn]": "Ansikt til KSysguard-sensoransikt",
        "Name[pt]": "Cara do Sensor do KSysguard",
        "Name[sk]": "Tvár pre senzor KSysguard",
        "Name[sv]": "Front för systemövervakaren",
        "Name[uk]": "Оболонка для датчиків KSysguard",
        "Name[x-test]": "xxFace for the KSysguard Sensor Facexx",
        "ServiceTypes": [
            "KPackage/PackageStructure"
        ],
        "Version": "1"
    }
}
